<?xml version="1.0" encoding="utf-8"?>
<!-- Generator: Adobe Illustrator 25.4.1, SVG Export Plug-In . SVG Version: 6.00 Build 0)  -->
<svg version="1.1" id="圖層_1" xmlns="http://www.w3.org/2000/svg" xmlns:xlink="http://www.w3.org/1999/xlink" x="0px" y="0px"
	 viewBox="0 0 66 66" style="enable-background:new 0 0 66 66;" xml:space="preserve">
<style type="text/css">
	.st0{fill:url(#SVGID_1_);}
	.st1{fill:#FFFFFF;}
	.st2{fill:#9D9898;}
</style>
<g>
	<g>
		<linearGradient id="SVGID_1_" gradientUnits="userSpaceOnUse" x1="19.2862" y1="19.2861" x2="46.7141" y2="46.714">
			<stop  offset="0" style="stop-color:#FFFFFF"/>
			<stop  offset="0.4512" style="stop-color:#FDFDFD"/>
			<stop  offset="0.6402" style="stop-color:#F6F6F6"/>
			<stop  offset="0.7801" style="stop-color:#E9E9EA"/>
			<stop  offset="0.8951" style="stop-color:#D8D8D9"/>
			<stop  offset="0.9949" style="stop-color:#C1C1C2"/>
			<stop  offset="1" style="stop-color:#C0C0C1"/>
		</linearGradient>
		<circle class="st0" cx="33" cy="33" r="19.4"/>
		<path class="st1" d="M33,53c-11,0-20-9-20-20s9-20,20-20s20,9,20,20S44,53,33,53z M33,14.2c-10.4,0-18.8,8.4-18.8,18.8
			S22.6,51.8,33,51.8S51.8,43.4,51.8,33S43.4,14.2,33,14.2z"/>
	</g>
	<g>
		<polygon class="st2" points="35.2,25.6 34.4,27 34.4,25.6 		"/>
		<polygon class="st2" points="31.3,40.4 31.3,40.4 31.3,40.4 		"/>
		<polygon class="st2" points="30.2,40.4 31.3,38.5 31.3,40.4 		"/>
		<polygon class="st2" points="31.3,46 31.3,43.3 34.4,43.3 34.4,48.1 31.3,48.1 		"/>
		<rect x="31.3" y="17.9" class="st2" width="3.1" height="4.8"/>
		<polygon class="st2" points="34.4,27.1 34.4,25.6 32.8,25.6 34.4,25.6 34.4,27 		"/>
		<rect x="34.4" y="34.6" class="st2" width="0" height="0"/>
		<polygon class="st2" points="31.3,25.6 31.3,25.6 31.3,25.6 26.7,25.6 26.7,22.7 31.3,22.7 		"/>
		<rect x="34.4" y="40.4" class="st2" width="5.7" height="2.9"/>
		<polygon class="st2" points="31.3,38.4 31.3,40.4 31.3,40.4 31.3,38.5 		"/>
		<polygon class="st2" points="35.3,31.5 39,31.5 39,34.6 34.4,34.6 34.4,33.1 		"/>
		<polygon class="st2" points="34.4,34.6 33.5,34.6 31.3,38.4 31.3,40.4 34.4,40.4 34.4,34.6 		"/>
		<polygon class="st2" points="34.4,34.6 33.5,34.6 34.4,33.1 34.4,34.6 34.4,34.6 		"/>
		<polygon class="st2" points="32.8,25.6 31.3,25.6 31.3,25.6 31.3,31.5 31.3,32.5 31.3,32.4 31.8,31.5 34.4,27.1 34.4,25.6 		"/>
		<rect x="26.6" y="31.5" class="st2" width="3.1" height="3.1"/>
		<rect x="31.3" y="25.6" class="st2" width="0" height="0"/>
	</g>
</g>
</svg>
