<?xml version="1.0" encoding="utf-8"?>
<!-- Generator: Adobe Illustrator 24.1.1, SVG Export Plug-In . SVG Version: 6.00 Build 0)  -->
<svg version="1.1" id="圖層_1" xmlns="http://www.w3.org/2000/svg" xmlns:xlink="http://www.w3.org/1999/xlink" x="0px" y="0px"
	 viewBox="0 0 240 240" style="enable-background:new 0 0 240 240;" xml:space="preserve">
<style type="text/css">
	.st0{fill:#FFFFFF;}
</style>
<g transform="rotate(0 50 50)">
	<path class="st0" d="M120,103.2L120,103.2c0.8,0,1.5,0.9,1.5,1.9v5.7c0,1.1-0.7,1.9-1.5,1.9l0,0c-0.8,0-1.5-0.9-1.5-1.9v-5.7
		C118.5,104.1,119.2,103.2,120,103.2z	">
<animate  accumulate="none" additive="replace" attributeName="opacity" begin="-0.9s" calcMode="linear" dur="1s" fill="remove" keyTimes="0;1" repeatCount="indefinite" restart="always" values="1;0">
			</animate>
	</path>
</g>
<g transform="rotate(36 50 50)">
	<path class="st0" d="M147.8,48.7L147.8,48.7c0.8,0,1.5,0.9,1.5,1.9v5.7c0,1.1-0.7,1.9-1.5,1.9l0,0c-0.8,0-1.5-0.9-1.5-1.9v-5.7
		C146.3,49.6,146.9,48.7,147.8,48.7z	">
<animate  accumulate="none" additive="replace" attributeName="opacity" begin="-0.8s" calcMode="linear" dur="1s" fill="remove" keyTimes="0;1" repeatCount="indefinite" restart="always" values="1;0">
			</animate>
	</path>
</g>
<g transform="rotate(72 50 50)">
	<path class="st0" d="M138.1-11.6L138.1-11.6c0.8,0,1.5,0.9,1.5,1.9V-4c0,1.1-0.7,1.9-1.5,1.9l0,0c-0.8,0-1.5-0.9-1.5-1.9v-5.7
		C136.6-10.8,137.3-11.6,138.1-11.6z	">
<animate  accumulate="none" additive="replace" attributeName="opacity" begin="-0.7s" calcMode="linear" dur="1s" fill="remove" keyTimes="0;1" repeatCount="indefinite" restart="always" values="1;0">
			</animate>
	</path>
</g>
<g transform="rotate(108 50 50)">
	<path class="st0" d="M94.9-54.9L94.9-54.9c0.8,0,1.5,0.9,1.5,1.9v5.7c0,1.1-0.7,1.9-1.5,1.9l0,0c-0.8,0-1.5-0.9-1.5-1.9V-53
		C93.4-54.1,94.1-54.9,94.9-54.9z	">
<animate  accumulate="none" additive="replace" attributeName="opacity" begin="-0.6s" calcMode="linear" dur="1s" fill="remove" keyTimes="0;1" repeatCount="indefinite" restart="always" values="1;0">
			</animate>
	</path>
</g>
<g transform="rotate(144 50 50)">
	<path class="st0" d="M34.5-64.5L34.5-64.5c0.8,0,1.5,0.9,1.5,1.9l0,5.7c0,1.1-0.7,1.9-1.5,1.9l0,0c-0.8,0-1.5-0.9-1.5-1.9v-5.7
		C33-63.7,33.7-64.5,34.5-64.5z	">
<animate  accumulate="none" additive="replace" attributeName="opacity" begin="-0.5s" calcMode="linear" dur="1s" fill="remove" keyTimes="0;1" repeatCount="indefinite" restart="always" values="1;0">
			</animate>
	</path>
</g>
<g transform="rotate(180 50 50)">
	<path class="st0" d="M-20-36.8L-20-36.8c0.8,0,1.5,0.9,1.5,1.9v5.7c0,1.1-0.7,1.9-1.5,1.9l0,0c-0.8,0-1.5-0.9-1.5-1.9v-5.7
		C-21.5-35.9-20.8-36.8-20-36.8z	">
<animate  accumulate="none" additive="replace" attributeName="opacity" begin="-0.4s" calcMode="linear" dur="1s" fill="remove" keyTimes="0;1" repeatCount="indefinite" restart="always" values="1;0">
			</animate>
	</path>
</g>
<g transform="rotate(216 50 50)">
	<path class="st0" d="M-47.8,17.7L-47.8,17.7c0.8,0,1.5,0.9,1.5,1.9v5.7c0,1.1-0.7,1.9-1.5,1.9l0,0c-0.8,0-1.5-0.9-1.5-1.9v-5.7
		C-49.3,18.6-48.6,17.7-47.8,17.7z	">
<animate  accumulate="none" additive="replace" attributeName="opacity" begin="-0.3s" calcMode="linear" dur="1s" fill="remove" keyTimes="0;1" repeatCount="indefinite" restart="always" values="1;0">
			</animate>
	</path>
</g>
<g transform="rotate(252 50 50)">
	<path class="st0" d="M-38.1,78.1L-38.1,78.1c0.8,0,1.5,0.9,1.5,1.9v5.7c0,1.1-0.7,1.9-1.5,1.9l0,0c-0.8,0-1.5-0.9-1.5-1.9V80
		C-39.6,79-39,78.1-38.1,78.1z	">
<animate  accumulate="none" additive="replace" attributeName="opacity" begin="-0.2s" calcMode="linear" dur="1s" fill="remove" keyTimes="0;1" repeatCount="indefinite" restart="always" values="1;0">
			</animate>
	</path>
</g>
<g transform="rotate(288 50 50)">
	<path class="st0" d="M5.1,121.4L5.1,121.4c0.8,0,1.5,0.9,1.5,1.9l0,5.7c0,1.1-0.7,1.9-1.5,1.9l0,0c-0.8,0-1.5-0.9-1.5-1.9l0-5.7
		C3.6,122.2,4.3,121.4,5.1,121.4z	">
<animate  accumulate="none" additive="replace" attributeName="opacity" begin="-0.1s" calcMode="linear" dur="1s" fill="remove" keyTimes="0;1" repeatCount="indefinite" restart="always" values="1;0">
			</animate>
	</path>
</g>
<g transform="rotate(324 50 50)">
	<path class="st0" d="M65.5,131L65.5,131c0.8,0,1.5,0.9,1.5,1.9v5.7c0,1.1-0.7,1.9-1.5,1.9l0,0c-0.8,0-1.5-0.9-1.5-1.9v-5.7
		C64,131.8,64.7,131,65.5,131z	">
<animate  accumulate="none" additive="replace" attributeName="opacity" begin="0s" calcMode="linear" dur="1s" fill="remove" keyTimes="0;1" repeatCount="indefinite" restart="always" values="1;0">
			</animate>
	</path>
</g>
</svg>
