<?xml version="1.0" encoding="utf-8"?>
<!-- Generator: Adobe Illustrator 25.2.1, SVG Export Plug-In . SVG Version: 6.00 Build 0)  -->
<svg version="1.1" id="圖層_1" xmlns="http://www.w3.org/2000/svg" xmlns:xlink="http://www.w3.org/1999/xlink" x="0px" y="0px"
	 viewBox="0 0 54 54" style="enable-background:new 0 0 54 54;" xml:space="preserve">
<style type="text/css">
	.st0{fill:#AA6E90;}
	.st1{fill:#F1C14F;}
	.st2{fill:none;stroke:#000000;stroke-width:2;stroke-linecap:round;}
	.st3{fill:none;stroke:#000000;stroke-width:2;}
	.st4{fill:#FFFFFF;stroke:#000000;stroke-width:2;stroke-linecap:round;}
</style>
<path class="st0" d="M18.8,44.2h23.5c3.3,0,6-2.7,6-6V21c0-2.8-2.2-5-5-5H20.6c-1.2,0-2.4,0.6-3.2,1.5l-3.6,4.4
	c-0.6,0.8-1,1.7-1,2.7v13.6C12.8,41.5,15.5,44.2,18.8,44.2z"/>
<circle class="st1" cx="122.5" cy="-40.2" r="5.1"/>
<path class="st2" d="M134-42c3,4.2,4,8.3,2.2,10.9c-3,4.3-12.4,2.8-21-3.2S102-48.6,105-52.9s12.4-2.8,21,3.2c2.2,1.5,4.1,3.2,5.7,5
	"/>
<path class="st2" d="M107.3-42.1c1.9-2.6,4.6-5.3,7.9-7.6c8.6-6,18-7.5,21-3.2s-1.6,12.6-10.2,18.6s-18,7.5-21,3.2
	c-1.4-2-1.1-4.8,0.4-7.9"/>
<circle class="st3" cx="120.6" cy="-42" r="5.3"/>
<g>
	<line class="st2" x1="25.5" y1="20" x2="36.5" y2="20"/>
	<circle class="st4" cx="19.5" cy="20" r="2"/>
	<line class="st2" x1="25.5" y1="27" x2="39.5" y2="27"/>
	<circle class="st4" cx="19.5" cy="27" r="2"/>
	<line class="st2" x1="25.5" y1="34" x2="34.5" y2="34"/>
	<circle class="st4" cx="19.5" cy="34" r="2"/>
</g>
<path class="st2" d="M31.1,12.6h-13c-1.5,0-2.9,0.7-3.8,1.8l-4.3,5.2c-0.7,0.9-1.2,2-1.2,3.2v13.6c0,2.8,2.2,5,5,5h26.4
	c2.8,0,5-2.2,5-5V17.6c0-2.8-2.2-5-5-5h-4.1"/>
</svg>
