<?xml version="1.0" encoding="utf-8"?>
<!-- Generator: Adobe Illustrator 24.3.0, SVG Export Plug-In . SVG Version: 6.00 Build 0)  -->
<svg version="1.1" id="圖層_1" xmlns="http://www.w3.org/2000/svg" xmlns:xlink="http://www.w3.org/1999/xlink" x="0px" y="0px"
	 viewBox="0 0 18 18" style="enable-background:new 0 0 18 18;" xml:space="preserve">
<style type="text/css">
	.st0{fill:none;stroke:#FFFFFF;stroke-width:1.5;stroke-linecap:round;stroke-linejoin:round;stroke-miterlimit:3;}
</style>
<path class="st0" d="M2.1,13C2,13.2,2,13.3,2,13.5C2,14.9,3.1,16,4.5,16S7,14.9,7,13.5c0-0.2,0-0.3-0.1-0.5"/>
<path class="st0" d="M1,13h8V8H5c-2.2,0-4,1.8-4,4V13z"/>
<circle class="st0" cx="14.5" cy="13.5" r="2.5"/>
<line class="st0" x1="8" y1="13" x2="12" y2="13"/>
<path class="st0" d="M14.5,11l-0.9-7.1c-0.1-0.5-0.5-0.9-1-0.9h-1.1"/>
<polyline class="st0" points="7,6 1,6 1,1 7,1 7,6 "/>
<line class="st0" x1="15.9" y1="4.2" x2="16.1" y2="6.1"/>
</svg>
