<?xml version="1.0" encoding="utf-8"?>
<!-- Generator: Adobe Illustrator 25.2.3, SVG Export Plug-In . SVG Version: 6.00 Build 0)  -->
<svg version="1.1" id="圖層_1" xmlns="http://www.w3.org/2000/svg" xmlns:xlink="http://www.w3.org/1999/xlink" x="0px" y="0px"
	 viewBox="0 0 85 85" style="enable-background:new 0 0 85 85;" xml:space="preserve">
<style type="text/css">
	.st0{fill:#FFFFFF;}
</style>
<g>
	<g>
		<g>
			<path class="st0" d="M42.5,42c-4.5,0-8.1-3.6-8.1-8.1s3.6-8.1,8.1-8.1s8.1,3.6,8.1,8.1S47,42,42.5,42z M42.5,28.8
				c-2.8,0-5.1,2.3-5.1,5.1s2.3,5.1,5.1,5.1c2.8,0,5.1-2.3,5.1-5.1S45.3,28.8,42.5,28.8z"/>
		</g>
	</g>
	<g>
		<g>
			<path class="st0" d="M42.5,60.1c-2.5,0-7.4-7.1-9.3-10.2c-2.5-3.9-6.7-11.2-6.7-16.3c0-8.9,7.2-16.1,16.1-16.1
				s16.1,7.2,16.1,16.1C58.6,41.2,46.3,60.1,42.5,60.1z M42.5,21.2c-6.9,0-12.5,5.6-12.5,12.5c0,6.4,9.4,19.8,12.5,22.6
				C45.6,53.4,55,39.9,55,33.6C55,26.8,49.4,21.2,42.5,21.2z"/>
		</g>
	</g>
	<g>
		<path class="st0" d="M53.1,67.5H32c-0.8,0-1.5-0.7-1.5-1.5c0-0.8,0.7-1.5,1.5-1.5h21.1c0.8,0,1.5,0.7,1.5,1.5
			C54.6,66.8,53.9,67.5,53.1,67.5z"/>
	</g>
</g>
</svg>
