<?xml version="1.0" encoding="utf-8"?>
<!-- Generator: Adobe Illustrator 25.2.3, SVG Export Plug-In . SVG Version: 6.00 Build 0)  -->
<svg version="1.1" id="圖層_1" xmlns="http://www.w3.org/2000/svg" xmlns:xlink="http://www.w3.org/1999/xlink" x="0px" y="0px"
	 viewBox="0 0 85 85" style="enable-background:new 0 0 85 85;" xml:space="preserve">
<style type="text/css">
	.st0{fill:#767779;}
	.st1{fill:#FFFFFF;}
	.st2{fill:none;}
</style>
<g>
	<circle class="st0" cx="42.5" cy="42.5" r="35.5"/>
	<g>
		<path class="st1" d="M24.5,33.2c0,0-0.4,3.7-3.9,6c0,0-2.4-1.9-0.8-4.2C21.3,32.6,24.5,33.2,24.5,33.2z"/>
		<path class="st1" d="M60.3,33.4c0,0,0.7,3.7,4.3,5.8c0,0,2.2-2,0.5-4.3C63.4,32.6,60.3,33.4,60.3,33.4z"/>
		<path class="st2" d="M57.6,35.9c-0.7-2.3-1.4-4.6-2.8-6.6c-0.3-0.5-0.9-0.8-1.5-1c-0.7-0.3-1.5-0.4-2.3-0.4
			c-3-0.2-6.1-0.4-9.1-0.4c-3.3,0-6.6,0.1-9.8,0.7c-1,0.2-1.7,0.7-2.1,1.5c-0.8,1.8-1.5,3.6-2.3,5.4c-0.1,0.3-0.2,0.6-0.3,1.1
			c10.1-1.4,20.1-1.4,30.1,0C57.6,36,57.6,35.9,57.6,35.9z"/>
		<path class="st2" d="M27,40.2c-1.6,0.3-2.9,1.5-3.2,3.1c-0.3,1.4,0.7,2.7,2.2,2.7c1.8,0,3.7-1.8,3.7-3.6C29.7,41,28.5,40,27,40.2z
			"/>
		<path class="st2" d="M58.7,40.4c-1.8-0.5-3.3,0.5-3.3,2.2c0.1,1.8,1.9,3.5,3.7,3.5c1.4,0,2.5-1.1,2.3-2.4
			C61.3,42.2,60.1,40.8,58.7,40.4z"/>
		<path class="st1" d="M62.7,38.5L62.7,38.5c-0.2-0.3-0.5-0.6-0.8-1c-0.5-0.6-0.9-1.1-1.2-1.7c-0.9-1.4-1.4-2.5-1.4-2.5l0,0.1
			c-0.7-1.8-1.4-3.6-2.5-5.3c-0.9-1.3-2.1-2-3.7-2.2c-2.5-0.2-5-0.5-7.5-0.6c-4.6-0.1-9.2-0.2-13.8,0.6c-1.3,0.2-2.5,0.6-3.2,1.7
			c-0.7,1.1-1.5,2.3-2,3.5c-0.3,0.7-0.6,1.5-0.9,2.2l0,0c-0.4,0.9-1.5,3.2-3.2,4.9c0,0,0,0,0,0c-0.1,0.1-0.2,0.2-0.3,0.3l0,0
			c-0.1,0.1-0.2,0.2-0.2,0.3c-1.6,1.8-2.3,4-2.1,6.3c0.2,3.1,0.6,6.1,1,9.2c0,0.4,0.4,0.7,0.6,1.1c0.1,0.2,0.3,0.5,0.3,0.7
			c0,0.7,0,1.5,0,2.2c0,0.9,0.5,1.4,1.4,1.4c1.7,0,3.4,0,5.1,0c0.8,0,1.4-0.6,1.4-1.4c0-0.6,0-1.2,0-1.8c0-0.8,0-0.8,0.8-0.8
			c5.7,0,11.4,0,17.1,0c2.4,0,4.8,0,7.2,0c0.5,0,0.6,0.1,0.6,0.6c0,0.7,0,1.4,0,2.1c0,0.8,0.5,1.3,1.3,1.3c1.7,0,3.4,0,5.1,0
			c0.8,0,1.3-0.5,1.3-1.3c0-0.8,0-1.5,0-2.3c0-0.2,0.2-0.4,0.3-0.7c0.2-0.4,0.6-0.8,0.6-1.3c0.3-2.7,0.5-5.4,0.9-8.1
			C65.5,43.2,64.6,40.7,62.7,38.5z M25.9,46.1c-1.5,0-2.5-1.3-2.2-2.7c0.3-1.7,1.6-2.9,3.2-3.1c1.5-0.2,2.7,0.8,2.7,2.2
			C29.7,44.3,27.8,46.1,25.9,46.1z M27.5,36.2c0.1-0.4,0.2-0.8,0.3-1.1c0.7-1.8,1.5-3.6,2.3-5.4c0.4-0.8,1.1-1.3,2.1-1.5
			c3.2-0.6,6.5-0.8,9.8-0.7c3,0,6.1,0.2,9.1,0.4c0.8,0,1.6,0.2,2.3,0.4c0.5,0.2,1.1,0.5,1.5,1c1.4,2,2.1,4.3,2.8,6.6
			c0,0.1,0,0.1,0,0.3C47.5,34.8,37.6,34.8,27.5,36.2z M59.1,46.1c-1.8,0-3.6-1.7-3.7-3.5c-0.1-1.7,1.5-2.8,3.3-2.2
			c1.4,0.4,2.6,1.9,2.8,3.3C61.6,45,60.4,46.1,59.1,46.1z"/>
	</g>
</g>
</svg>
