<?xml version="1.0" encoding="utf-8"?>
<!-- Generator: Adobe Illustrator 25.2.3, SVG Export Plug-In . SVG Version: 6.00 Build 0)  -->
<svg version="1.1" id="圖層_1" xmlns="http://www.w3.org/2000/svg" xmlns:xlink="http://www.w3.org/1999/xlink" x="0px" y="0px"
	 viewBox="0 0 85 85" style="enable-background:new 0 0 85 85;" xml:space="preserve">
<style type="text/css">
	.st0{fill:#767779;}
	.st1{fill:#FFFFFF;}
	.st2{fill:none;}
</style>
<g>
	<circle class="st0" cx="42.5" cy="42.5" r="35.5"/>
	<g>
		<path class="st1" d="M60.9,28.2c0-2.7-0.8-4-3.2-4.8c-0.6-0.2-1.3-0.4-1.9-0.5c-2.2-0.5-4.5-0.8-6.8-1c0-0.1,0.1-0.2,0.1-0.3
			c0-0.6-0.5-1.2-1.2-1.2H37c-0.6,0-1.2,0.5-1.2,1.2c0,0.1,0.1,0.1,0.1,0.2c-2.9,0.3-5.8,0.7-8.6,1.6c-2.3,0.7-3.2,2.1-3.2,4.7
			c0,5,0,9.9,0,14.9c0,5.2,0,9.1,0,14.2c0,2.6,1.7,2.6,2.6,2.6h32c1,0,2.3-0.8,2.3-2.7C61,47,60.9,38.2,60.9,28.2z M42.1,23.2h0.8
			c0.5,0,0.8,0.4,0.8,0.8c0,0.5-0.4,0.8-0.8,0.8h-0.8c-0.5,0-0.8-0.4-0.8-0.8C41.3,23.6,41.7,23.2,42.1,23.2z M33.4,57.3
			c-1.3,0.8-3,0.5-3.6-0.6c-0.6-1.1-0.1-2.7,1.3-3.4c1.3-0.8,3-0.5,3.6,0.6C35.3,55,34.8,56.5,33.4,57.3z M55.2,56.7
			c-0.6,1.1-2.3,1.4-3.6,0.6c-1.3-0.8-1.9-2.3-1.3-3.4c0.6-1.1,2.3-1.4,3.6-0.6C55.3,54.1,55.9,55.6,55.2,56.7z M57.9,42.7
			c0,1.4-1.1,2.6-2.4,2.6h-26c-1.3,0-2.4-1.1-2.4-2.6V31.8c0-0.8,0.4-1.6,1-2.1c1.8-1.2,6-3.2,14.3-3.2c8,0,12.2,1.9,14.1,3.1
			c0.8,0.5,1.3,1.5,1.3,2.6V42.7z"/>
		<polygon class="st2" points="30.5,65.1 30,66.1 55,66.1 54.5,65.1 		"/>
		<path class="st1" d="M57.6,65.4l-2.9-5h-2.4l1.4,2.5H31.2l1.4-2.5h-2.3l-2.9,5c-0.3,0.5-0.1,1.1,0.4,1.4C28,67,28.1,67,28.3,67
			c0.4,0,0.7-0.2,0.9-0.5L30,65H55c0,0,0,0,0,0l0.8,1.4c0.2,0.3,0.5,0.5,0.9,0.5c0.2,0,0.4,0,0.5-0.1C57.7,66.6,57.9,65.9,57.6,65.4
			z"/>
	</g>
</g>
</svg>
